{
  "total" : 1,
  "items" : [ {
    "uid" : "569f09555c2f2499aba4c7fb66aa3908",
    "name" : "慕语书屋首页",
    "statistic" : {
      "failed" : 0,
      "broken" : 0,
      "skipped" : 1,
      "passed" : 1,
      "unknown" : 0,
      "total" : 2
    }
  } ]
}