{
  "reportName" : "Allure Report",
  "testRuns" : [ ],
  "statistic" : {
    "failed" : 0,
    "broken" : 0,
    "skipped" : 1,
    "passed" : 1,
    "unknown" : 0,
    "total" : 2
  },
  "time" : {
    "start" : 1620981565990,
    "stop" : 1620981570431,
    "duration" : 4441,
    "minDuration" : 0,
    "maxDuration" : 2362,
    "sumDuration" : 2362
  }
}