{
  "c01fc424d0a34935d12ba28f6dd6d45e" : {
    "statistic" : {
      "failed" : 0,
      "broken" : 0,
      "skipped" : 0,
      "passed" : 1,
      "unknown" : 0,
      "total" : 1
    },
    "items" : [ {
      "uid" : "16674134c8644184",
      "reportUrl" : "http://localhost:5050/job/pytest-study/9/allure/#testresult/16674134c8644184",
      "status" : "passed",
      "time" : {
        "start" : 1620981568069,
        "stop" : 1620981570431,
        "duration" : 2362
      }
    } ]
  },
  "ac406faba1248a3170cc55dcfe06a70c" : {
    "statistic" : {
      "failed" : 0,
      "broken" : 0,
      "skipped" : 1,
      "passed" : 0,
      "unknown" : 0,
      "total" : 1
    },
    "items" : [ {
      "uid" : "a621030e25d07e20",
      "reportUrl" : "http://localhost:5050/job/pytest-study/9/allure/#testresult/a621030e25d07e20",
      "status" : "skipped",
      "statusDetails" : "Skipped: unconditional skip",
      "time" : {
        "start" : 1620981565990,
        "stop" : 1620981565990,
        "duration" : 0
      }
    } ]
  }
}