[ {
  "buildOrder" : 9,
  "reportUrl" : "http://localhost:5050/job/pytest-study/9/allure",
  "reportName" : "AllureReport",
  "data" : {
    "failed" : 0,
    "broken" : 0,
    "skipped" : 1,
    "passed" : 1,
    "unknown" : 0,
    "total" : 2
  }
} ]